Introduction to `guardianapi` • guardianapi
…
We can also use gu_content() for more general queries. For example, here’s all the articles returned for “relationships” between the two given dates:

relations <- gu_content(query = "relationships", from_date = "2018-11-30",
                        to_date = "2018-12-30")

tibble::glimpse(relations)

#> # A tibble: 170 x 44
#>    id    type  section_id section_name web_publication_da… web_title
#>    <chr> <chr> <chr>      <chr>        <dttm>              <chr>    
#>  1 musi… arti… music      Music        2018-12-02 08:10:28 The 1975…
#>  2 film… arti… film       Film         2018-12-18 08:48:12 Woman cl…
#>  3 life… arti… lifeandst… Life and st… 2018-12-10 08:00:39 I’m in a…
#>  4 poli… arti… politics   Politics     2018-12-25 17:00:00 'Special…
#>  5 foot… arti… football   Football     2018-12-19 10:08:41 Kelly Ca…
#>  6 film… arti… film       Film         2018-12-14 14:06:11 Sondra L…
#>  7 foot… arti… football   Football     2018-12-05 01:16:40 Manchest…
#>  8 comm… arti… commentis… Opinion      2018-12-24 10:41:14 How to g…
#>  9 book… arti… books      Books        2018-12-15 14:00:13 Dolly Al…
#> 10 foot… arti… football   Football     2018-12-09 17:00:20 Phoenix …
#> # … with 160 more rows, and 38 more variables: web_url <chr>,
#> #   api_url <chr>, tags <list>, is_hosted <lgl>, pillar_id <chr>,
#> #   pillar_name <chr>, headline <chr>, standfirst <chr>, trail_text <chr>,
#> #   byline <chr>, main <chr>, body <chr>, newspaper_page_number <chr>,
#> #   star_rating <chr>, wordcount <chr>, comment_close_date <dttm>,
#> #   commentable <chr>, first_publication_date <dttm>,
#> #   is_inappropriate_for_sponsorship <chr>, is_premoderated <chr>,
#> #   last_modified <chr>, newspaper_edition_date <date>,
#> #   production_office <chr>, publication <chr>, short_url <chr>,
…
